INDEX VERSION 1.131+/home/darwin/workspace/java/pascaldsl/.metadata/.plugins/org.eclipse.jdt.core
3315194970.index
742783013.index
2857292328.index
4015335806.index
1590738292.index
3011710743.index
2070247889.index
2394848349.index
658068485.index
1207264359.index
2542769189.index
3650202888.index
151997283.index
2799595324.index
2058406255.index
443590122.index
2388230533.index
1696827288.index
525441260.index
1635854364.index
473021964.index
331773973.index
3764232108.index
3481169826.index
1164034945.index
3945077419.index
1722959454.index
810851884.index
2110467057.index
2382454562.index
2881549250.index
2949112869.index
841797173.index
848030411.index
2127640764.index
3999898580.index
1961835564.index
3633733336.index
2584912897.index
2120580541.index
3913931546.index
3581487890.index
2054669766.index
4189777786.index
2520721139.index
965940801.index
1310552982.index
1596667458.index
2479853576.index
2871807982.index
3821861100.index
792579036.index
1535384894.index
27360545.index
1754895328.index
4250476245.index
4029654484.index
2853283191.index
4237154031.index
646308851.index
3378986099.index
1581364359.index
661319050.index
3121112348.index
2607920225.index
1644663290.index
1561870075.index
3161498040.index
3849092011.index
3629129560.index
1251256537.index
2501942026.index
3372584395.index
4003076330.index
3535469990.index
3758740818.index
52490016.index
964278060.index
688408849.index
2056591138.index
3272125642.index
1475412490.index
1865797976.index
1764801729.index
253078592.index
364881842.index
1051327357.index
2586015785.index
894232064.index
362678204.index
2079195150.index
1432845447.index
1482914186.index
1111481001.index
